PCA_JUNG
…
Chloe Jung

January 21, 2021

Import Files

library(haven)

## Warning: package 'haven' was built under R version 3.6.3

fatality <- read_sav("fatality.sav")
fatality

## # A tibble: 50 x 7
##    state frate drink gasuse drivers density  temp
##    <chr> <dbl> <dbl>  <dbl>   <dbl>   <dbl> <dbl>
##  1 AL      4.2    19    2.4     2.2      68    40
##  2 AK      4.7    19    0.2     0.2       1    18
##  3 AZ      5.3    19    1.6     1.5      16    38
##  4 AR      3.6    21    1.5     1.4      37    29
##  5 CA      3.4    21   12.6    15.1     128    47
##  6 CO      3.5    21    1.6     2        21    16
##  7 CT      2.3    18    1.5     1.9     624    22
##  8 DE      3.3    20    0.3     0.4     277    24
##  9 FL      3.2    18    5       6.8     125    45
## 10 GA      3.3    18    3.5     3.4      79    33
## # ... with 40 more rows
…
